<?xml version="1.0" encoding="UTF-8" standalone="no"?>
<!-- Created with Inkscape (http://www.inkscape.org/) -->

<svg
   xmlns:dc="http://purl.org/dc/elements/1.1/"
   xmlns:cc="http://creativecommons.org/ns#"
   xmlns:rdf="http://www.w3.org/1999/02/22-rdf-syntax-ns#"
   xmlns:svg="http://www.w3.org/2000/svg"
   xmlns="http://www.w3.org/2000/svg"
   xmlns:sodipodi="http://sodipodi.sourceforge.net/DTD/sodipodi-0.dtd"
   xmlns:inkscape="http://www.inkscape.org/namespaces/inkscape"
   width="64px"
   height="64px"
   viewBox="0 0 64 64"
   version="1.1"
   id="SVGRoot"
   inkscape:version="0.92.2 2405546, 2018-03-11"
   sodipodi:docname="TextSuggest.svg">
  <sodipodi:namedview
     id="base"
     pagecolor="#ffffff"
     bordercolor="#666666"
     borderopacity="1.0"
     inkscape:pageopacity="0.0"
     inkscape:pageshadow="2"
     inkscape:zoom="8"
     inkscape:cx="30.002813"
     inkscape:cy="36.689111"
     inkscape:document-units="px"
     inkscape:current-layer="layer1"
     showgrid="false"
     inkscape:window-width="1440"
     inkscape:window-height="843"
     inkscape:window-x="0"
     inkscape:window-y="28"
     inkscape:window-maximized="1"
     inkscape:grid-bbox="true" />
  <defs
     id="defs3801" />
  <metadata
     id="metadata3804">
    <rdf:RDF>
      <cc:Work
         rdf:about="">
        <dc:format>image/svg+xml</dc:format>
        <dc:type
           rdf:resource="http://purl.org/dc/dcmitype/StillImage" />
        <dc:title></dc:title>
      </cc:Work>
    </rdf:RDF>
  </metadata>
  <g
     id="layer1"
     inkscape:groupmode="layer"
     inkscape:label="Layer 1">
    <g
       id="g3909"
       transform="matrix(2.3333333,0,0,2.1145834,4.0539225,9.665065)"
       style="">
      <path
         id="path3895"
         d="M 20,5 H 4 C 2.9,5 2.01,5.9 2.01,7 L 2,17 c 0,1.1 0.9,2 2,2 h 16 c 1.1,0 2,-0.9 2,-2 V 7 C 22,5.9 21.1,5 20,5 Z m -9,3 h 2 v 2 h -2 z m 0,3 h 2 v 2 H 11 Z M 8,8 h 2 v 2 H 8 Z m 0,3 h 2 v 2 H 8 Z M 7,13 H 5 V 11 H 7 Z M 7,10 H 5 V 8 h 2 z m 9,7 H 8 v -2 h 8 z m 0,-4 h -2 v -2 h 2 z m 0,-3 H 14 V 8 h 2 z m 3,3 h -2 v -2 h 2 z m 0,-3 H 17 V 8 h 2 z"
         inkscape:connector-curvature="0"
         style="" />
      <path
         id="path3897"
         d="M 0,0 H 24 V 24 H 0 Z M 0,0 H 24 V 24 H 0 Z"
         inkscape:connector-curvature="0"
         style="fill:none;" />
    </g>
    <g
       id="g3893-6"
       transform="matrix(1.6568628,0,0,1.9310898,13.220588,11.500001)"
       style="fill:none;stroke:none;stroke-opacity:1;stroke-width:1.0001516;stroke-miterlimit:4;stroke-dasharray:none;fill-opacity:1">
      <path
         id="path3879-4"
         d="M 0,0 H 24 V 24 H 0 Z"
         inkscape:connector-curvature="0"
         style="fill:none;stroke:none;stroke-opacity:1;stroke-width:1.0001516;stroke-miterlimit:4;stroke-dasharray:none;fill-opacity:1" />
      <path
         id="path3881-0"
         d="m 7,2 v 11 h 3 v 9 l 7,-12 h -4 l 4,-8 z"
         inkscape:connector-curvature="0"
         style="fill:none;stroke:none;stroke-opacity:1;stroke-width:1.0001516;stroke-miterlimit:4;stroke-dasharray:none;fill-opacity:1" />
    </g>
    <path
       style="fill:none;fill-opacity:1;stroke-width:0.25"
       d="M 29.63713,51.4375 29.625,49.75 21.0625,49.74451 C 13.296118,49.73951 12.406061,49.69635 11.489658,49.280085 10.396691,48.783617 9.2058071,47.53899 8.9905864,46.668233 8.9167392,46.369455 8.8886471,40.94113 8.9281594,34.605289 L 9,23.085578 9.6733884,22.20297 C 10.972993,20.499585 11.502233,20.384468 18.4375,20.296655 l 6.1875,-0.07834 V 17.859155 15.5 h 8.106301 8.106302 l -0.981301,2.262504 C 39.316585,19.006881 38.875,20.067349 38.875,20.1191 c 0,0.05175 2.953125,0.130499 6.5625,0.174996 7.274228,0.08968 7.3971,0.11468 8.88349,1.807584 0.491073,0.559302 0.82693,1.266112 0.926717,1.950271 0.08608,0.590177 0.12181,5.910549 0.0794,11.823049 -0.07689,10.7192 -0.07875,10.75265 -0.65221,11.674897 -0.316305,0.508696 -0.991304,1.183695 -1.5,1.5 C 52.257425,49.620382 52.165985,49.626002 41.784928,49.75 L 31.319855,49.875 30.484557,51.5 29.64926,53.125 Z M 29.625,43.5 v -2.25 h -3.5 -3.5 v 2.25 2.25 h 3.5 3.5 z m 11.875,0 v -2.125 l -2.931035,-0.07038 -2.931035,-0.07038 -1.137097,2.264097 -1.137099,2.264098 4.068133,-0.06872 L 41.5,45.625 Z M 20.5,35 V 32.875 L 18.0625,32.80345 15.625,32.7319 V 35 37.268106 L 18.0625,37.196553 20.5,37.125 Z m 6.879146,1.875 c 8.76e-4,-0.1375 -0.618439,-0.283739 -1.376271,-0.324976 L 24.625,36.475048 V 34.612524 32.75 h -1 -1 v 2.259053 2.259053 l 2.376271,-0.07155 c 1.368395,-0.0412 2.376952,-0.177589 2.377875,-0.321553 z M 41.5,35 v -2.125 l -0.802415,-0.07759 c -0.780483,-0.07547 -0.83365,-0.01539 -1.94536,2.198157 l -1.142947,2.275745 1.945359,-0.07316 L 41.5,37.125 Z m 7,0 V 32.875 L 46.0625,32.80345 43.625,32.7319 V 35 37.268106 L 46.0625,37.196553 48.5,37.125 Z m -28,-6.25 V 26.625 L 18.0625,26.55345 15.625,26.4819 V 28.75 31.018106 L 18.0625,30.946553 20.5,30.875 Z m 4.125,0 V 26.5 h -1 -1 V 28.75 31 h 1 1 z m 16.875,0 V 26.625 L 39.0625,26.55345 36.625,26.4819 V 28.75 31.018106 L 39.0625,30.946553 41.5,30.875 Z m 7,0 V 26.625 L 46.0625,26.55345 43.625,26.4819 V 28.75 31.018106 L 46.0625,30.946553 48.5,30.875 Z"
       id="path6231"
       inkscape:connector-curvature="0" />
    <path
       style="fill:none;fill-opacity:1;stroke-width:0.25"
       d="M 29.63713,51.4375 29.625,49.75 21.0625,49.74451 C 13.296118,49.73951 12.406061,49.69635 11.489658,49.280085 10.396691,48.783617 9.2058071,47.53899 8.9905864,46.668233 8.9167392,46.369455 8.8886471,40.94113 8.9281594,34.605289 L 9,23.085578 9.6733884,22.20297 C 10.972993,20.499585 11.502233,20.384468 18.4375,20.296655 l 6.1875,-0.07834 V 17.859155 15.5 h 8.106301 8.106302 l -0.981301,2.262504 C 39.316585,19.006881 38.875,20.067349 38.875,20.1191 c 0,0.05175 2.953125,0.130499 6.5625,0.174996 7.274228,0.08968 7.3971,0.11468 8.88349,1.807584 0.491073,0.559302 0.82693,1.266112 0.926717,1.950271 0.08608,0.590177 0.12181,5.910549 0.0794,11.823049 -0.07689,10.7192 -0.07875,10.75265 -0.65221,11.674897 -0.316305,0.508696 -0.991304,1.183695 -1.5,1.5 C 52.257425,49.620382 52.165985,49.626002 41.784928,49.75 L 31.319855,49.875 30.484557,51.5 29.64926,53.125 Z M 29.625,43.5 v -2.25 h -3.5 -3.5 v 2.25 2.25 h 3.5 3.5 z m 11.875,0 v -2.125 l -2.931035,-0.07038 -2.931035,-0.07038 -1.137097,2.264097 -1.137099,2.264098 4.068133,-0.06872 L 41.5,45.625 Z M 20.5,35 V 32.875 L 18.0625,32.80345 15.625,32.7319 V 35 37.268106 L 18.0625,37.196553 20.5,37.125 Z m 6.879146,1.875 c 8.76e-4,-0.1375 -0.618439,-0.283739 -1.376271,-0.324976 L 24.625,36.475048 V 34.612524 32.75 h -1 -1 v 2.259053 2.259053 l 2.376271,-0.07155 c 1.368395,-0.0412 2.376952,-0.177589 2.377875,-0.321553 z M 41.5,35 v -2.125 l -0.802415,-0.07759 c -0.780483,-0.07547 -0.83365,-0.01539 -1.94536,2.198157 l -1.142947,2.275745 1.945359,-0.07316 L 41.5,37.125 Z m 7,0 V 32.875 L 46.0625,32.80345 43.625,32.7319 V 35 37.268106 L 46.0625,37.196553 48.5,37.125 Z m -28,-6.25 V 26.625 L 18.0625,26.55345 15.625,26.4819 V 28.75 31.018106 L 18.0625,30.946553 20.5,30.875 Z m 4.125,0 V 26.5 h -1 -1 V 28.75 31 h 1 1 z m 16.875,0 V 26.625 L 39.0625,26.55345 36.625,26.4819 V 28.75 31.018106 L 39.0625,30.946553 41.5,30.875 Z m 7,0 V 26.625 L 46.0625,26.55345 43.625,26.4819 V 28.75 31.018106 L 46.0625,30.946553 48.5,30.875 Z"
       id="path6233"
       inkscape:connector-curvature="0" />
    <path
       style="fill:none;fill-opacity:1;stroke-width:0.25"
       d="M 24.625 15.5 L 24.625 17.859375 L 24.625 20.21875 L 18.4375 20.296875 C 11.502233 20.384688 10.973433 20.49974 9.6738281 22.203125 L 9 23.085938 L 8.9277344 34.605469 C 8.8882221 40.94131 8.9163872 46.369191 8.9902344 46.667969 C 9.2054551 47.538726 10.397267 48.782829 11.490234 49.279297 C 12.406637 49.695562 13.296118 49.739141 21.0625 49.744141 L 29.625 49.75 L 29.636719 51.4375 L 29.648438 53.125 L 30.484375 51.5 L 31.320312 49.875 L 41.785156 49.75 C 44.38042 49.719 46.331709 49.694847 47.814453 49.667969 C 52.262686 49.587335 52.487677 49.478645 53.175781 49.050781 C 53.684477 48.734476 54.359476 48.059477 54.675781 47.550781 C 55.249241 46.628534 55.249282 46.5942 55.326172 35.875 C 55.368582 29.9625 55.334127 24.642911 55.248047 24.052734 C 55.14826 23.368575 54.811386 22.660864 54.320312 22.101562 C 52.833922 20.408659 52.711728 20.384602 45.4375 20.294922 C 41.828125 20.250425 38.875 20.170891 38.875 20.119141 C 38.875 20.06739 39.315752 19.006096 39.855469 17.761719 L 40.837891 15.5 L 32.730469 15.5 L 24.625 15.5 z M 15.625 26.482422 L 18.0625 26.552734 L 20.5 26.625 L 20.5 28.75 L 20.5 30.875 L 18.0625 30.947266 L 15.625 31.017578 L 15.625 28.75 L 15.625 26.482422 z M 36.625 26.482422 L 39.0625 26.552734 L 41.5 26.625 L 41.5 28.75 L 41.5 30.875 L 39.0625 30.947266 L 36.625 31.017578 L 36.625 28.75 L 36.625 26.482422 z M 43.625 26.482422 L 46.0625 26.552734 L 48.5 26.625 L 48.5 28.75 L 48.5 30.875 L 46.0625 30.947266 L 43.625 31.017578 L 43.625 28.75 L 43.625 26.482422 z M 22.625 26.5 L 23.625 26.5 L 24.625 26.5 L 24.625 28.75 L 24.625 31 L 23.625 31 L 22.625 31 L 22.625 28.75 L 22.625 26.5 z M 15.625 32.732422 L 18.0625 32.802734 L 20.5 32.875 L 20.5 35 L 20.5 37.125 L 18.0625 37.197266 L 15.625 37.267578 L 15.625 35 L 15.625 32.732422 z M 43.625 32.732422 L 46.0625 32.802734 L 48.5 32.875 L 48.5 35 L 48.5 37.125 L 46.0625 37.197266 L 43.625 37.267578 L 43.625 35 L 43.625 32.732422 z M 22.625 32.75 L 23.625 32.75 L 24.625 32.75 L 24.625 34.613281 L 24.625 36.474609 L 26.001953 36.550781 C 26.759785 36.592018 27.379782 36.7375 27.378906 36.875 C 27.377983 37.018964 26.370348 37.156066 25.001953 37.197266 L 22.625 37.267578 L 22.625 35.009766 L 22.625 32.75 z M 40.220703 32.796875 C 40.352813 32.767269 40.502145 32.778008 40.697266 32.796875 L 41.5 32.875 L 41.5 35 L 41.5 37.125 L 39.554688 37.197266 L 37.609375 37.271484 L 38.751953 34.996094 C 39.585736 33.335933 39.824372 32.885694 40.220703 32.796875 z M 35.638672 41.234375 L 38.568359 41.304688 L 41.5 41.375 L 41.5 43.5 L 41.5 45.625 L 37.431641 45.693359 L 33.363281 45.761719 L 34.5 43.498047 L 35.638672 41.234375 z M 22.625 41.25 L 26.125 41.25 L 29.625 41.25 L 29.625 43.5 L 29.625 45.75 L 26.125 45.75 L 22.625 45.75 L 22.625 43.5 L 22.625 41.25 z "
       id="path6235" />
    <path
       style="fill:#00adef;fill-opacity:1;stroke:none;stroke-width:0.25"
       d="m 29.954207,51.48812 c -0.09075,-0.662055 -0.164991,-4.281787 -0.164991,-8.043845 v -6.840107 h -2.5 -2.5 v -10.5 -10.5 h 8 c 4.4,0 8,0.08901 8,0.197808 0,0.108794 -1.344001,3.366645 -2.986669,7.239669 -1.642667,3.873024 -3.020792,7.243386 -3.0625,7.489693 -0.06757,0.399027 0.254713,0.475074 2.957338,0.69783 l 3.033169,0.25 -5.305678,10.606345 -5.305678,10.606348 z"
       id="path6252"
       inkscape:connector-curvature="0" />
    <path
       style="fill:none;fill-opacity:1;stroke:none;stroke-width:0.0625"
       d="m 75.149368,20.148093 -0.0016,-8.390625 h -2.5 -2.5 v -4.4062504 -4.40625 h 5.506686 c 4.381968,0 5.499685,0.015957 5.472403,0.078125 -0.01886,0.042969 -0.276989,0.6738943 -0.573629,1.4020567 -0.590834,1.4503175 -0.598157,1.5094978 -0.202815,1.639005 0.437036,0.1431657 1.105983,0.1948236 3.463153,0.267434 l 2.447047,0.075379 -4.02015,8.0346257 c -2.211082,4.419043 -4.710768,9.398687 -5.554858,11.065875 l -1.534709,3.03125 -0.0016,-8.390625 z"
       id="path6256"
       inkscape:connector-curvature="0" />
    <path
       style="fill:#00adef;fill-opacity:1;stroke:none;stroke-width:0.0625"
       d=""
       id="path6260"
       inkscape:connector-curvature="0" />
    <path
       style="fill:#00adef;fill-opacity:1;stroke:none;stroke-width:0.015625"
       d=""
       id="path6266"
       inkscape:connector-curvature="0" />
    <path
       style="fill:#00adef;fill-opacity:1;stroke:none;stroke-width:0.015625"
       d=""
       id="path6288"
       inkscape:connector-curvature="0" />
    <path
       style="fill:#00adef;fill-opacity:1;stroke:none;stroke-width:0.015625"
       d=""
       id="path6312"
       inkscape:connector-curvature="0" />
    <path
       style="fill:#00adef;fill-opacity:1;stroke:none;stroke-width:0.015625"
       d=""
       id="path6332"
       inkscape:connector-curvature="0" />
    <path
       style="fill:#00adef;fill-opacity:1;stroke:none;stroke-width:0.015625"
       d=""
       id="path6336"
       inkscape:connector-curvature="0" />
    <path
       style="fill:#00adef;fill-opacity:1;stroke:none;stroke-width:0.015625"
       d=""
       id="path6338"
       inkscape:connector-curvature="0" />
    <path
       style="fill:#00adef;fill-opacity:1;stroke:none;stroke-width:0.015625"
       d=""
       id="path6340"
       inkscape:connector-curvature="0" />
    <path
       style="fill:#00adef;fill-opacity:1;stroke:none;stroke-width:0.015625"
       d=""
       id="path6342"
       inkscape:connector-curvature="0" />
    <path
       style="fill:#00adef;fill-opacity:1;stroke:none;stroke-width:0.015625"
       d=""
       id="path6344"
       inkscape:connector-curvature="0" />
    <path
       style="fill:none;fill-opacity:1;stroke:none;stroke-width:0.015625"
       d="m 80.160433,5.4943413 c -0.0022,-0.1300675 0.788944,-2.0109619 3.964974,-9.4263747 0.828054,-1.9333437 1.097054,-2.5467121 1.11872,-2.5508847 0.07219,-0.013902 0.05933,0.028374 -0.178258,0.58605 -1.058168,2.4837938 -4.860766,11.3436021 -4.89036,11.394223 -0.01293,0.022111 -0.01466,0.021765 -0.01508,-0.00301 z"
       id="path6354"
       inkscape:connector-curvature="0" />
    <path
       style="fill:#00adef;fill-opacity:1;stroke:none;stroke-width:0.00390625"
       d=""
       id="path6356"
       inkscape:connector-curvature="0" />
    <path
       style="fill:#00adef;fill-opacity:1;stroke:none;stroke-width:0.03125"
       d=""
       id="path6360"
       inkscape:connector-curvature="0" />
    <path
       style="fill:#00adef;fill-opacity:1;stroke:none;stroke-width:0.03125"
       d=""
       id="path6362"
       inkscape:connector-curvature="0" />
    <path
       style="fill:#00adef;fill-opacity:1;stroke:none;stroke-width:0.03125"
       d=""
       id="path6364"
       inkscape:connector-curvature="0" />
    <path
       style="fill:#00adef;fill-opacity:1;stroke:none;stroke-width:0.03125"
       d=""
       id="path6366"
       inkscape:connector-curvature="0" />
    <path
       style="fill:#00adef;fill-opacity:1;stroke:none;stroke-width:0.00390625"
       d="m 85.212759,-6.2161772 c -6.5e-5,-0.00238 0.02273,-0.058038 0.05066,-0.1236944 0.02793,-0.065656 0.05078,-0.1239609 0.05078,-0.1295662 0,-0.014268 -0.01205,-0.017834 -0.06128,-0.018135 -0.03646,-2.226e-4 -0.04084,-9.82e-4 -0.03921,-0.0068 0.001,-0.0036 0.100295,-0.2368221 0.220637,-0.5182674 0.436061,-1.0198207 0.561617,-1.3151681 0.764708,-1.7988281 0.0618,-0.147168 0.112984,-0.2683106 0.113751,-0.2692058 0.01881,-0.021961 -0.05519,0.1558792 -0.500506,1.2027995 -0.3323,0.7812285 -0.449081,1.067455 -0.507466,1.2437796 -0.03161,0.095459 -0.03622,0.1381438 -0.0143,0.1324113 0.01765,-0.00461 0.0372,-0.030557 0.05845,-0.077545 0.06365,-0.1407511 0.08563,-0.1900188 0.15155,-0.3396616 0.13846,-0.3143213 0.3498,-0.8039775 0.729603,-1.6904297 0.130067,-0.3035726 0.20403,-0.4716797 0.20753,-0.4716797 0.003,0 0.0054,0.00112 0.0054,0.0025 0,0.00294 -1.221904,2.8521738 -1.226858,2.8607817 -0.0019,0.00322 -0.0034,0.00392 -0.0035,0.00154 z"
       id="path6368"
       inkscape:connector-curvature="0" />
    <path
       style="fill:#00adef;fill-opacity:1;stroke:none;stroke-width:0.00390625"
       d=""
       id="path6370"
       inkscape:connector-curvature="0" />
    <path
       style="fill:#00adef;fill-opacity:1;stroke:none;stroke-width:0.01104854"
       d=""
       id="path6384"
       inkscape:connector-curvature="0" />
    <path
       style="fill:#00adef;fill-opacity:1;stroke:none;stroke-width:0.01104854"
       d="m 83.047418,16.972667 c 0.01961,-0.0024 0.05442,-0.0025 0.07734,-8.9e-5 0.02292,0.0024 0.0069,0.0044 -0.03566,0.0044 -0.04254,4.9e-5 -0.06129,-0.0019 -0.04168,-0.0044 z"
       id="path6394"
       inkscape:connector-curvature="0" />
    <path
       style="fill:none;fill-opacity:1;stroke:none;stroke-width:0.01104854"
       d="M 74.962456,13.084204 V 11.879913 H 74.211155 73.459854 V 7.6538448 3.4277769 h 3.80595 3.805949 l -0.0095,0.024859 c -0.02023,0.052871 -0.874482,2.0295708 -0.904926,2.0939445 -0.01772,0.037459 -0.03493,0.065385 -0.03826,0.062057 -0.0092,-0.0092 -0.03289,0.1154264 -0.03392,0.1784437 -0.0023,0.1439971 0.129512,0.2292027 0.478925,0.3094725 l 0.160204,0.036803 2.881135,0.00457 c 1.584625,0.00251 2.884118,0.00755 2.887763,0.011194 0.0036,0.00365 -0.418837,0.8597133 -0.938849,1.9023737 -0.520013,1.0426603 -0.942834,1.9026348 -0.939604,1.9110546 0.0032,0.00842 -0.004,0.025222 -0.01615,0.037339 -0.01212,0.012117 -0.01913,0.024931 -0.01559,0.028476 0.0035,0.0035 3.54e-4,0.0064 -0.0071,0.0064 -0.0074,0 -0.01047,0.005 -0.0067,0.01105 0.0038,0.0061 0.0013,0.01105 -0.0055,0.01105 -0.0068,0 -0.0093,0.005 -0.0055,0.01105 0.0038,0.0061 0.0013,0.01105 -0.0055,0.01105 -0.0068,0 -0.0093,0.005 -0.0055,0.01105 0.0038,0.0061 0.0013,0.01105 -0.0055,0.01105 -0.0068,0 -0.0093,0.005 -0.0055,0.01105 0.0038,0.0061 0.0013,0.01105 -0.0055,0.01105 -0.0068,0 -0.0093,0.005 -0.0055,0.01105 0.0038,0.0061 0.0013,0.01105 -0.0055,0.01105 -0.0068,0 -0.0093,0.005 -0.0055,0.01105 0.0038,0.0061 0.0013,0.01105 -0.0055,0.01105 -0.0068,0 -0.0093,0.005 -0.0055,0.01105 0.0038,0.0061 0.0013,0.01105 -0.0055,0.01105 -0.0068,0 -0.0093,0.005 -0.0055,0.01105 0.0038,0.0061 0.0013,0.01105 -0.0055,0.01105 -0.0068,0 -0.0093,0.005 -0.0055,0.01105 0.0038,0.0061 0.0013,0.01105 -0.0055,0.01105 -0.0068,0 -0.0093,0.005 -0.0055,0.01105 0.0038,0.0061 0.0013,0.01105 -0.0055,0.01105 -0.0068,0 -0.0093,0.005 -0.0055,0.01105 0.0038,0.0061 0.0013,0.01105 -0.0055,0.01105 -0.0068,0 -0.0093,0.005 -0.0055,0.01105 0.0038,0.0061 0.0013,0.01105 -0.0055,0.01105 -0.0068,0 -0.0093,0.005 -0.0055,0.01105 0.0038,0.0061 0.0013,0.01105 -0.0055,0.01105 -0.0068,0 -0.0093,0.005 -0.0055,0.01105 0.0038,0.0061 0.0013,0.01105 -0.0055,0.01105 -0.0068,0 -0.0093,0.005 -0.0055,0.01105 0.0038,0.0061 0.0013,0.01105 -0.0055,0.01105 -0.0068,0 -0.0093,0.005 -0.0055,0.01105 0.0038,0.0061 0.0013,0.01105 -0.0055,0.01105 -0.0068,0 -0.0093,0.005 -0.0055,0.01105 0.0038,0.0061 0.0013,0.01105 -0.0055,0.01105 -0.0068,0 -0.0093,0.005 -0.0055,0.01105 0.0038,0.0061 0.0013,0.01105 -0.0055,0.01105 -0.0068,0 -0.0093,0.005 -0.0055,0.01105 0.0038,0.0061 0.0013,0.01105 -0.0055,0.01105 -0.0068,0 -0.0093,0.005 -0.0055,0.01105 0.0038,0.0061 0.0013,0.01105 -0.0055,0.01105 -0.0068,0 -0.0093,0.005 -0.0055,0.01105 0.0038,0.0061 0.0013,0.01105 -0.0055,0.01105 -0.0068,0 -0.0093,0.005 -0.0055,0.01105 0.0038,0.0061 0.0013,0.01105 -0.0055,0.01105 -0.0068,0 -0.0093,0.005 -0.0055,0.01105 0.0038,0.0061 0.0013,0.01105 -0.0055,0.01105 -0.0068,0 -0.0093,0.005 -0.0055,0.01105 0.0038,0.0061 0.0013,0.01105 -0.0055,0.01105 -0.0068,0 -0.0093,0.005 -0.0055,0.01105 0.0038,0.0061 0.0013,0.01105 -0.0055,0.01105 -0.0068,0 -0.0093,0.005 -0.0055,0.01105 0.0038,0.0061 0.0013,0.01105 -0.0055,0.01105 -0.0068,0 -0.0093,0.005 -0.0055,0.01105 0.0038,0.0061 7.35e-4,0.01105 -0.0067,0.01105 -0.0074,0 -0.01046,0.0031 -0.0067,0.0068 0.0081,0.0081 -0.06679,0.160827 -0.08467,0.172528 -0.0068,0.0045 -0.0087,0.0082 -0.0042,0.0083 0.0045,8.9e-5 -0.308811,0.635323 -0.696333,1.411621 -0.387522,0.776298 -0.77602,1.556878 -0.863329,1.734621 l -0.158744,0.32317 H 78.796541 75.13182 l -0.0073,-0.8535 c -0.004,-0.469425 -0.0077,-0.995197 -0.0081,-1.168383 -4.64e-4,-0.186109 -0.0047,-0.305847 -0.01028,-0.292787 -0.0052,0.01215 -0.0098,0.171675 -0.01027,0.354491 -4.28e-4,0.182817 -0.0041,0.698646 -0.0081,1.146287 l -0.0073,0.813892 H 75.02152 74.96257 Z M 82.797128,13.493 c 0.005,-0.0091 0.03597,-0.07624 0.06876,-0.149155 0.107728,-0.239605 0.546815,-1.128479 1.672807,-3.3863789 1.150771,-2.3075882 1.458925,-2.9301099 1.441117,-2.9112912 -0.01658,0.017524 -3.22813,6.4408381 -3.22813,6.4564801 0,0.01861 0.03381,0.01143 0.04545,-0.0097 z m 3.454306,-7.1228533 c -0.01056,-0.00277 -0.03045,-0.00287 -0.04419,-2.231e-4 -0.01374,0.00264 -0.0051,0.00491 0.01921,0.00503 0.02431,1.227e-4 0.03555,-0.00204 0.02499,-0.00481 z m -0.276342,-0.01167 c -0.04709,-0.00207 -0.124158,-0.00207 -0.171253,0 -0.04709,0.00207 -0.0086,0.00377 0.08563,0.00377 0.09419,0 0.132721,-0.00169 0.08563,-0.00377 z m -0.380602,-0.01106 c -0.05589,-0.002 -0.150358,-0.00201 -0.209922,-2.21e-5 -0.05956,0.00199 -0.01383,0.00363 0.101625,0.00364 0.115458,1.06e-5 0.164192,-0.00162 0.108297,-0.00362 z m -0.442515,-0.011056 c -0.05621,-0.00201 -0.148189,-0.00201 -0.204398,0 -0.05621,0.00201 -0.01022,0.00365 0.102199,0.00365 0.112419,0 0.158409,-0.00164 0.102199,-0.00365 z M 84.56364,6.3221733 c -0.462157,-0.018927 -0.756798,-0.023632 -0.745461,-0.011906 0.01145,0.011842 0.216619,0.01741 0.701267,0.01903 l 0.237544,7.944e-4 -0.19335,-0.00792 z m -0.919593,-0.02967 c -0.0166,-0.00252 -0.04643,-0.00257 -0.06629,-1.127e-4 -0.01986,0.00246 -0.0063,0.00452 0.03019,0.00458 0.03646,6.63e-5 0.05271,-0.00195 0.03611,-0.00447 z M 81.43414,6.2154423 c -0.01063,-0.00278 -0.02804,-0.00278 -0.03867,0 -0.01063,0.00278 -0.0019,0.00505 0.01933,0.00505 0.02127,0 0.02997,-0.00227 0.01933,-0.00505 z m -0.07458,-0.014481 c 0.01315,-0.00849 0.01086,-0.01077 -0.01105,-0.011001 -0.01519,-1.602e-4 -0.04751,-0.00312 -0.07182,-0.00657 -0.04314,-0.00613 -0.04354,-0.00589 -0.01657,0.010087 0.03251,0.019259 0.07613,0.022541 0.09944,0.00748 z M 80.817845,3.8200002 c 0,-0.00608 -0.0048,-0.00359 -0.01071,0.00552 -0.0059,0.00912 -0.01071,0.021545 -0.01071,0.027621 0,0.00608 0.0048,0.00359 0.01071,-0.00552 0.0059,-0.00911 0.01071,-0.021545 0.01071,-0.027621 z m 0.05524,-0.1325826 c 0,-0.00608 -0.0048,-0.00359 -0.01071,0.00552 -0.0059,0.00912 -0.01071,0.021545 -0.01071,0.027621 0,0.00608 0.0048,0.00359 0.01071,-0.00552 0.0059,-0.00911 0.01071,-0.021545 0.01071,-0.027621 z m 0.03315,-0.07734 c 0,-0.00608 -0.0048,-0.00359 -0.01071,0.00552 -0.0059,0.00912 -0.01071,0.021545 -0.01071,0.027621 0,0.00608 0.0048,0.00359 0.01071,-0.00552 0.0059,-0.00912 0.01071,-0.021545 0.01071,-0.027621 z m 0.05524,-0.1325825 c 0,-0.00608 -0.0048,-0.00359 -0.01071,0.00552 -0.0059,0.00911 -0.01071,0.021545 -0.01071,0.027621 0,0.00608 0.0048,0.00359 0.01071,-0.00552 0.0059,-0.00912 0.01071,-0.021545 0.01071,-0.027621 z"
       id="path6404"
       inkscape:connector-curvature="0" />
    <path
       style="fill:none;fill-opacity:1;stroke:none;stroke-width:0.01104854"
       d="M 74.962456,13.084204 V 11.879913 H 74.211155 73.459854 V 7.6538448 3.4277769 h 3.80595 3.805949 l -0.0095,0.024859 c -0.02023,0.052871 -0.874482,2.0295708 -0.904926,2.0939445 -0.01772,0.037459 -0.03493,0.065385 -0.03826,0.062057 -0.0092,-0.0092 -0.03289,0.1154264 -0.03392,0.1784437 -0.0023,0.1439971 0.129512,0.2292027 0.478925,0.3094725 l 0.160204,0.036803 2.881135,0.00457 c 1.584625,0.00251 2.884118,0.00755 2.887763,0.011194 0.0036,0.00365 -0.418837,0.8597133 -0.938849,1.9023737 -0.520013,1.0426603 -0.942834,1.9026348 -0.939604,1.9110546 0.0032,0.00842 -0.004,0.025222 -0.01615,0.037339 -0.01212,0.012117 -0.01913,0.024931 -0.01559,0.028476 0.0035,0.0035 3.54e-4,0.0064 -0.0071,0.0064 -0.0074,0 -0.01047,0.005 -0.0067,0.01105 0.0038,0.0061 0.0013,0.01105 -0.0055,0.01105 -0.0068,0 -0.0093,0.005 -0.0055,0.01105 0.0038,0.0061 0.0013,0.01105 -0.0055,0.01105 -0.0068,0 -0.0093,0.005 -0.0055,0.01105 0.0038,0.0061 0.0013,0.01105 -0.0055,0.01105 -0.0068,0 -0.0093,0.005 -0.0055,0.01105 0.0038,0.0061 0.0013,0.01105 -0.0055,0.01105 -0.0068,0 -0.0093,0.005 -0.0055,0.01105 0.0038,0.0061 0.0013,0.01105 -0.0055,0.01105 -0.0068,0 -0.0093,0.005 -0.0055,0.01105 0.0038,0.0061 0.0013,0.01105 -0.0055,0.01105 -0.0068,0 -0.0093,0.005 -0.0055,0.01105 0.0038,0.0061 0.0013,0.01105 -0.0055,0.01105 -0.0068,0 -0.0093,0.005 -0.0055,0.01105 0.0038,0.0061 0.0013,0.01105 -0.0055,0.01105 -0.0068,0 -0.0093,0.005 -0.0055,0.01105 0.0038,0.0061 0.0013,0.01105 -0.0055,0.01105 -0.0068,0 -0.0093,0.005 -0.0055,0.01105 0.0038,0.0061 0.0013,0.01105 -0.0055,0.01105 -0.0068,0 -0.0093,0.005 -0.0055,0.01105 0.0038,0.0061 0.0013,0.01105 -0.0055,0.01105 -0.0068,0 -0.0093,0.005 -0.0055,0.01105 0.0038,0.0061 0.0013,0.01105 -0.0055,0.01105 -0.0068,0 -0.0093,0.005 -0.0055,0.01105 0.0038,0.0061 0.0013,0.01105 -0.0055,0.01105 -0.0068,0 -0.0093,0.005 -0.0055,0.01105 0.0038,0.0061 0.0013,0.01105 -0.0055,0.01105 -0.0068,0 -0.0093,0.005 -0.0055,0.01105 0.0038,0.0061 0.0013,0.01105 -0.0055,0.01105 -0.0068,0 -0.0093,0.005 -0.0055,0.01105 0.0038,0.0061 0.0013,0.01105 -0.0055,0.01105 -0.0068,0 -0.0093,0.005 -0.0055,0.01105 0.0038,0.0061 0.0013,0.01105 -0.0055,0.01105 -0.0068,0 -0.0093,0.005 -0.0055,0.01105 0.0038,0.0061 0.0013,0.01105 -0.0055,0.01105 -0.0068,0 -0.0093,0.005 -0.0055,0.01105 0.0038,0.0061 0.0013,0.01105 -0.0055,0.01105 -0.0068,0 -0.0093,0.005 -0.0055,0.01105 0.0038,0.0061 0.0013,0.01105 -0.0055,0.01105 -0.0068,0 -0.0093,0.005 -0.0055,0.01105 0.0038,0.0061 0.0013,0.01105 -0.0055,0.01105 -0.0068,0 -0.0093,0.005 -0.0055,0.01105 0.0038,0.0061 0.0013,0.01105 -0.0055,0.01105 -0.0068,0 -0.0093,0.005 -0.0055,0.01105 0.0038,0.0061 0.0013,0.01105 -0.0055,0.01105 -0.0068,0 -0.0093,0.005 -0.0055,0.01105 0.0038,0.0061 0.0013,0.01105 -0.0055,0.01105 -0.0068,0 -0.0093,0.005 -0.0055,0.01105 0.0038,0.0061 0.0013,0.01105 -0.0055,0.01105 -0.0068,0 -0.0093,0.005 -0.0055,0.01105 0.0038,0.0061 0.0013,0.01105 -0.0055,0.01105 -0.0068,0 -0.0093,0.005 -0.0055,0.01105 0.0038,0.0061 7.35e-4,0.01105 -0.0067,0.01105 -0.0074,0 -0.01046,0.0031 -0.0067,0.0068 0.0081,0.0081 -0.06679,0.160827 -0.08467,0.172528 -0.0068,0.0045 -0.0087,0.0082 -0.0042,0.0083 0.0045,8.9e-5 -0.308811,0.635323 -0.696333,1.411621 -0.387522,0.776298 -0.77602,1.556878 -0.863329,1.734621 l -0.158744,0.32317 H 78.796541 75.13182 l -0.0073,-0.8535 c -0.004,-0.469425 -0.0077,-0.995197 -0.0081,-1.168383 -4.64e-4,-0.186109 -0.0047,-0.305847 -0.01028,-0.292787 -0.0052,0.01215 -0.0098,0.171675 -0.01027,0.354491 -4.28e-4,0.182817 -0.0041,0.698646 -0.0081,1.146287 l -0.0073,0.813892 H 75.02152 74.96257 Z M 82.797128,13.493 c 0.005,-0.0091 0.03597,-0.07624 0.06876,-0.149155 0.107728,-0.239605 0.546815,-1.128479 1.672807,-3.3863789 1.150771,-2.3075882 1.458925,-2.9301099 1.441117,-2.9112912 -0.01658,0.017524 -3.22813,6.4408381 -3.22813,6.4564801 0,0.01861 0.03381,0.01143 0.04545,-0.0097 z m 3.454306,-7.1228533 c -0.01056,-0.00277 -0.03045,-0.00287 -0.04419,-2.231e-4 -0.01374,0.00264 -0.0051,0.00491 0.01921,0.00503 0.02431,1.227e-4 0.03555,-0.00204 0.02499,-0.00481 z m -0.276342,-0.01167 c -0.04709,-0.00207 -0.124158,-0.00207 -0.171253,0 -0.04709,0.00207 -0.0086,0.00377 0.08563,0.00377 0.09419,0 0.132721,-0.00169 0.08563,-0.00377 z m -0.380602,-0.01106 c -0.05589,-0.002 -0.150358,-0.00201 -0.209922,-2.21e-5 -0.05956,0.00199 -0.01383,0.00363 0.101625,0.00364 0.115458,1.06e-5 0.164192,-0.00162 0.108297,-0.00362 z m -0.442515,-0.011056 c -0.05621,-0.00201 -0.148189,-0.00201 -0.204398,0 -0.05621,0.00201 -0.01022,0.00365 0.102199,0.00365 0.112419,0 0.158409,-0.00164 0.102199,-0.00365 z M 84.56364,6.3221733 c -0.462157,-0.018927 -0.756798,-0.023632 -0.745461,-0.011906 0.01145,0.011842 0.216619,0.01741 0.701267,0.01903 l 0.237544,7.944e-4 -0.19335,-0.00792 z m -0.919593,-0.02967 c -0.0166,-0.00252 -0.04643,-0.00257 -0.06629,-1.127e-4 -0.01986,0.00246 -0.0063,0.00452 0.03019,0.00458 0.03646,6.63e-5 0.05271,-0.00195 0.03611,-0.00447 z M 81.43414,6.2154423 c -0.01063,-0.00278 -0.02804,-0.00278 -0.03867,0 -0.01063,0.00278 -0.0019,0.00505 0.01933,0.00505 0.02127,0 0.02997,-0.00227 0.01933,-0.00505 z m -0.07458,-0.014481 c 0.01315,-0.00849 0.01086,-0.01077 -0.01105,-0.011001 -0.01519,-1.602e-4 -0.04751,-0.00312 -0.07182,-0.00657 -0.04314,-0.00613 -0.04354,-0.00589 -0.01657,0.010087 0.03251,0.019259 0.07613,0.022541 0.09944,0.00748 z M 80.817845,3.8200002 c 0,-0.00608 -0.0048,-0.00359 -0.01071,0.00552 -0.0059,0.00912 -0.01071,0.021545 -0.01071,0.027621 0,0.00608 0.0048,0.00359 0.01071,-0.00552 0.0059,-0.00911 0.01071,-0.021545 0.01071,-0.027621 z m 0.05524,-0.1325826 c 0,-0.00608 -0.0048,-0.00359 -0.01071,0.00552 -0.0059,0.00912 -0.01071,0.021545 -0.01071,0.027621 0,0.00608 0.0048,0.00359 0.01071,-0.00552 0.0059,-0.00911 0.01071,-0.021545 0.01071,-0.027621 z m 0.03315,-0.07734 c 0,-0.00608 -0.0048,-0.00359 -0.01071,0.00552 -0.0059,0.00912 -0.01071,0.021545 -0.01071,0.027621 0,0.00608 0.0048,0.00359 0.01071,-0.00552 0.0059,-0.00912 0.01071,-0.021545 0.01071,-0.027621 z m 0.05524,-0.1325825 c 0,-0.00608 -0.0048,-0.00359 -0.01071,0.00552 -0.0059,0.00911 -0.01071,0.021545 -0.01071,0.027621 0,0.00608 0.0048,0.00359 0.01071,-0.00552 0.0059,-0.00912 0.01071,-0.021545 0.01071,-0.027621 z"
       id="path6406"
       inkscape:connector-curvature="0" />
    <path
       style="fill:none;fill-opacity:1;stroke:none;stroke-width:0.01104854"
       d="M 74.962456,13.084204 V 11.879913 H 74.211155 73.459854 V 7.6538448 3.4277769 h 3.80595 3.805949 l -0.0095,0.024859 c -0.02023,0.052871 -0.874482,2.0295708 -0.904926,2.0939445 -0.01772,0.037459 -0.03493,0.065385 -0.03826,0.062057 -0.0092,-0.0092 -0.03289,0.1154264 -0.03392,0.1784437 -0.0023,0.1439971 0.129512,0.2292027 0.478925,0.3094725 l 0.160204,0.036803 2.881135,0.00457 c 1.584625,0.00251 2.884118,0.00755 2.887763,0.011194 0.0036,0.00365 -0.418837,0.8597133 -0.938849,1.9023737 -0.520013,1.0426603 -0.942834,1.9026348 -0.939604,1.9110546 0.0032,0.00842 -0.004,0.025222 -0.01615,0.037339 -0.01212,0.012117 -0.01913,0.024931 -0.01559,0.028476 0.0035,0.0035 3.54e-4,0.0064 -0.0071,0.0064 -0.0074,0 -0.01047,0.005 -0.0067,0.01105 0.0038,0.0061 0.0013,0.01105 -0.0055,0.01105 -0.0068,0 -0.0093,0.005 -0.0055,0.01105 0.0038,0.0061 0.0013,0.01105 -0.0055,0.01105 -0.0068,0 -0.0093,0.005 -0.0055,0.01105 0.0038,0.0061 0.0013,0.01105 -0.0055,0.01105 -0.0068,0 -0.0093,0.005 -0.0055,0.01105 0.0038,0.0061 0.0013,0.01105 -0.0055,0.01105 -0.0068,0 -0.0093,0.005 -0.0055,0.01105 0.0038,0.0061 0.0013,0.01105 -0.0055,0.01105 -0.0068,0 -0.0093,0.005 -0.0055,0.01105 0.0038,0.0061 0.0013,0.01105 -0.0055,0.01105 -0.0068,0 -0.0093,0.005 -0.0055,0.01105 0.0038,0.0061 0.0013,0.01105 -0.0055,0.01105 -0.0068,0 -0.0093,0.005 -0.0055,0.01105 0.0038,0.0061 0.0013,0.01105 -0.0055,0.01105 -0.0068,0 -0.0093,0.005 -0.0055,0.01105 0.0038,0.0061 0.0013,0.01105 -0.0055,0.01105 -0.0068,0 -0.0093,0.005 -0.0055,0.01105 0.0038,0.0061 0.0013,0.01105 -0.0055,0.01105 -0.0068,0 -0.0093,0.005 -0.0055,0.01105 0.0038,0.0061 0.0013,0.01105 -0.0055,0.01105 -0.0068,0 -0.0093,0.005 -0.0055,0.01105 0.0038,0.0061 0.0013,0.01105 -0.0055,0.01105 -0.0068,0 -0.0093,0.005 -0.0055,0.01105 0.0038,0.0061 0.0013,0.01105 -0.0055,0.01105 -0.0068,0 -0.0093,0.005 -0.0055,0.01105 0.0038,0.0061 0.0013,0.01105 -0.0055,0.01105 -0.0068,0 -0.0093,0.005 -0.0055,0.01105 0.0038,0.0061 0.0013,0.01105 -0.0055,0.01105 -0.0068,0 -0.0093,0.005 -0.0055,0.01105 0.0038,0.0061 0.0013,0.01105 -0.0055,0.01105 -0.0068,0 -0.0093,0.005 -0.0055,0.01105 0.0038,0.0061 0.0013,0.01105 -0.0055,0.01105 -0.0068,0 -0.0093,0.005 -0.0055,0.01105 0.0038,0.0061 0.0013,0.01105 -0.0055,0.01105 -0.0068,0 -0.0093,0.005 -0.0055,0.01105 0.0038,0.0061 0.0013,0.01105 -0.0055,0.01105 -0.0068,0 -0.0093,0.005 -0.0055,0.01105 0.0038,0.0061 0.0013,0.01105 -0.0055,0.01105 -0.0068,0 -0.0093,0.005 -0.0055,0.01105 0.0038,0.0061 0.0013,0.01105 -0.0055,0.01105 -0.0068,0 -0.0093,0.005 -0.0055,0.01105 0.0038,0.0061 0.0013,0.01105 -0.0055,0.01105 -0.0068,0 -0.0093,0.005 -0.0055,0.01105 0.0038,0.0061 0.0013,0.01105 -0.0055,0.01105 -0.0068,0 -0.0093,0.005 -0.0055,0.01105 0.0038,0.0061 0.0013,0.01105 -0.0055,0.01105 -0.0068,0 -0.0093,0.005 -0.0055,0.01105 0.0038,0.0061 0.0013,0.01105 -0.0055,0.01105 -0.0068,0 -0.0093,0.005 -0.0055,0.01105 0.0038,0.0061 0.0013,0.01105 -0.0055,0.01105 -0.0068,0 -0.0093,0.005 -0.0055,0.01105 0.0038,0.0061 7.35e-4,0.01105 -0.0067,0.01105 -0.0074,0 -0.01046,0.0031 -0.0067,0.0068 0.0081,0.0081 -0.06679,0.160827 -0.08467,0.172528 -0.0068,0.0045 -0.0087,0.0082 -0.0042,0.0083 0.0045,8.9e-5 -0.308811,0.635323 -0.696333,1.411621 -0.387522,0.776298 -0.77602,1.556878 -0.863329,1.734621 l -0.158744,0.32317 H 78.796541 75.13182 l -0.0073,-0.8535 c -0.004,-0.469425 -0.0077,-0.995197 -0.0081,-1.168383 -4.64e-4,-0.186109 -0.0047,-0.305847 -0.01028,-0.292787 -0.0052,0.01215 -0.0098,0.171675 -0.01027,0.354491 -4.28e-4,0.182817 -0.0041,0.698646 -0.0081,1.146287 l -0.0073,0.813892 H 75.02152 74.96257 Z M 82.797128,13.493 c 0.005,-0.0091 0.03597,-0.07624 0.06876,-0.149155 0.107728,-0.239605 0.546815,-1.128479 1.672807,-3.3863789 1.150771,-2.3075882 1.458925,-2.9301099 1.441117,-2.9112912 -0.01658,0.017524 -3.22813,6.4408381 -3.22813,6.4564801 0,0.01861 0.03381,0.01143 0.04545,-0.0097 z m 3.454306,-7.1228533 c -0.01056,-0.00277 -0.03045,-0.00287 -0.04419,-2.231e-4 -0.01374,0.00264 -0.0051,0.00491 0.01921,0.00503 0.02431,1.227e-4 0.03555,-0.00204 0.02499,-0.00481 z m -0.276342,-0.01167 c -0.04709,-0.00207 -0.124158,-0.00207 -0.171253,0 -0.04709,0.00207 -0.0086,0.00377 0.08563,0.00377 0.09419,0 0.132721,-0.00169 0.08563,-0.00377 z m -0.380602,-0.01106 c -0.05589,-0.002 -0.150358,-0.00201 -0.209922,-2.21e-5 -0.05956,0.00199 -0.01383,0.00363 0.101625,0.00364 0.115458,1.06e-5 0.164192,-0.00162 0.108297,-0.00362 z m -0.442515,-0.011056 c -0.05621,-0.00201 -0.148189,-0.00201 -0.204398,0 -0.05621,0.00201 -0.01022,0.00365 0.102199,0.00365 0.112419,0 0.158409,-0.00164 0.102199,-0.00365 z M 84.56364,6.3221733 c -0.462157,-0.018927 -0.756798,-0.023632 -0.745461,-0.011906 0.01145,0.011842 0.216619,0.01741 0.701267,0.01903 l 0.237544,7.944e-4 -0.19335,-0.00792 z m -0.919593,-0.02967 c -0.0166,-0.00252 -0.04643,-0.00257 -0.06629,-1.127e-4 -0.01986,0.00246 -0.0063,0.00452 0.03019,0.00458 0.03646,6.63e-5 0.05271,-0.00195 0.03611,-0.00447 z M 81.43414,6.2154423 c -0.01063,-0.00278 -0.02804,-0.00278 -0.03867,0 -0.01063,0.00278 -0.0019,0.00505 0.01933,0.00505 0.02127,0 0.02997,-0.00227 0.01933,-0.00505 z m -0.07458,-0.014481 c 0.01315,-0.00849 0.01086,-0.01077 -0.01105,-0.011001 -0.01519,-1.602e-4 -0.04751,-0.00312 -0.07182,-0.00657 -0.04314,-0.00613 -0.04354,-0.00589 -0.01657,0.010087 0.03251,0.019259 0.07613,0.022541 0.09944,0.00748 z M 80.817845,3.8200002 c 0,-0.00608 -0.0048,-0.00359 -0.01071,0.00552 -0.0059,0.00912 -0.01071,0.021545 -0.01071,0.027621 0,0.00608 0.0048,0.00359 0.01071,-0.00552 0.0059,-0.00911 0.01071,-0.021545 0.01071,-0.027621 z m 0.05524,-0.1325826 c 0,-0.00608 -0.0048,-0.00359 -0.01071,0.00552 -0.0059,0.00912 -0.01071,0.021545 -0.01071,0.027621 0,0.00608 0.0048,0.00359 0.01071,-0.00552 0.0059,-0.00911 0.01071,-0.021545 0.01071,-0.027621 z m 0.03315,-0.07734 c 0,-0.00608 -0.0048,-0.00359 -0.01071,0.00552 -0.0059,0.00912 -0.01071,0.021545 -0.01071,0.027621 0,0.00608 0.0048,0.00359 0.01071,-0.00552 0.0059,-0.00912 0.01071,-0.021545 0.01071,-0.027621 z m 0.05524,-0.1325825 c 0,-0.00608 -0.0048,-0.00359 -0.01071,0.00552 -0.0059,0.00911 -0.01071,0.021545 -0.01071,0.027621 0,0.00608 0.0048,0.00359 0.01071,-0.00552 0.0059,-0.00912 0.01071,-0.021545 0.01071,-0.027621 z"
       id="path6408"
       inkscape:connector-curvature="0" />
    <path
       style="fill:#00adef;fill-opacity:1;stroke:none;stroke-width:0.01104854"
       d=""
       id="path6420"
       inkscape:connector-curvature="0" />
    <path
       style="fill:#00adef;fill-opacity:1;stroke:none;stroke-width:0.01104854"
       d=""
       id="path6422"
       inkscape:connector-curvature="0" />
    <path
       style="fill:#00adef;fill-opacity:1;stroke:none;stroke-width:0.01104854"
       d=""
       id="path6424"
       inkscape:connector-curvature="0" />
    <path
       style="fill:#00adef;fill-opacity:1;stroke:none;stroke-width:0.01104854"
       d=""
       id="path6426"
       inkscape:connector-curvature="0" />
    <path
       style="fill:#00adef;fill-opacity:1;stroke:none;stroke-width:0.01104854"
       d=""
       id="path6430"
       inkscape:connector-curvature="0" />
    <path
       style="fill:#00adef;fill-opacity:1;stroke:none;stroke-width:0.01104854"
       d=""
       id="path6432"
       inkscape:connector-curvature="0" />
    <path
       style="fill:#00adef;fill-opacity:1;stroke:none;stroke-width:0.01104854"
       d=""
       id="path6434"
       inkscape:connector-curvature="0" />
    <path
       style="fill:#00adef;fill-opacity:1;stroke:none;stroke-width:0.01104854"
       d=""
       id="path6436"
       inkscape:connector-curvature="0" />
    <path
       style="fill:#00adef;fill-opacity:1;stroke:none;stroke-width:0.01104854"
       d=""
       id="path6438"
       inkscape:connector-curvature="0" />
    <path
       style="fill:#00adef;fill-opacity:1;stroke:none;stroke-width:0.01104854"
       d=""
       id="path6440"
       inkscape:connector-curvature="0" />
    <path
       style="fill:#00adef;fill-opacity:1;stroke:none;stroke-width:0.00390625"
       d=""
       id="path6444"
       inkscape:connector-curvature="0" />
    <path
       style="fill:#00adef;fill-opacity:1;stroke:none;stroke-width:0.00390625"
       d=""
       id="path6446"
       inkscape:connector-curvature="0" />
    <path
       style="fill:#00adef;fill-opacity:1;stroke:none;stroke-width:0.00390625"
       d=""
       id="path6454"
       inkscape:connector-curvature="0" />
    <path
       style="fill:#00adef;fill-opacity:1;stroke:none;stroke-width:0.00390625"
       d=""
       id="path6456"
       inkscape:connector-curvature="0" />
    <path
       style="fill:#00adef;fill-opacity:1;stroke:none;stroke-width:0.00390625"
       d=""
       id="path6458"
       inkscape:connector-curvature="0" />
    <path
       style="fill:#00adef;fill-opacity:1;stroke:none;stroke-width:0.00390625"
       d=""
       id="path6460"
       inkscape:connector-curvature="0" />
    <path
       style="fill:#00adef;fill-opacity:1;stroke:none;stroke-width:0.00390625"
       d=""
       id="path6462"
       inkscape:connector-curvature="0" />
    <path
       style="fill:#00adef;fill-opacity:1;stroke:none;stroke-width:0.00390625"
       d=""
       id="path6464"
       inkscape:connector-curvature="0" />
    <path
       style="fill:#00adef;fill-opacity:1;stroke:none;stroke-width:0.00390625"
       d=""
       id="path6466"
       inkscape:connector-curvature="0" />
    <path
       style="fill:#00adef;fill-opacity:1;stroke:none;stroke-width:0.00390625"
       d=""
       id="path6472"
       inkscape:connector-curvature="0" />
    <path
       style="fill:#00adef;fill-opacity:1;stroke:none;stroke-width:0.00390625"
       d=""
       id="path6488"
       inkscape:connector-curvature="0" />
    <path
       style="fill:#00adef;fill-opacity:1;stroke:none;stroke-width:0.00390625"
       d="m 86.394437,6.1273977 c 0.01675,-7.34e-4 0.04312,-7.295e-4 0.05859,9.9e-6 0.01548,7.395e-4 0.0018,0.00134 -0.03045,0.00133 -0.03223,-5.5e-6 -0.04489,-6.105e-4 -0.02814,-0.00134 z"
       id="path6492"
       inkscape:connector-curvature="0" />
    <path
       style="fill:#00adef;fill-opacity:1;stroke:none;stroke-width:0.00390625"
       d="m 86.404128,6.1274392 c 0.0092,-8.252e-4 0.02325,-8.135e-4 0.03125,2.58e-5 0.008,8.394e-4 4.82e-4,0.00151 -0.01671,0.0015 -0.01719,-1.41e-5 -0.02373,-7.009e-4 -0.01454,-0.00153 z"
       id="path6494"
       inkscape:connector-curvature="0" />
  </g>
</svg>
